{
  "devices": {
    "_links": {
      "self": {
        "href": "https://acc.api.data.amsterdam.nl/iothings/devices/?page=1&page_size=1000"
      },
      "next": {
        "href": null
      },
      "previous": {
        "href": null
      }
    },
    "count": 817,
    "results": [
      {
        "_links": {
          "self": {
            "href": "https://acc.api.data.amsterdam.nl/iothings/devices/1/"
          }
        },
        "id": 1,
        "reference": "VLK1B",
        "application": "Sensor",
        "types": [
          {
            "name": "People",
            "application": "Cats",
            "description": ""
          },
          {
            "name": "Cats",
            "application": "Cats",
            "description": ""
          }
        ],
        "categories": ["Sensor"],
        "longitude": 3.70557,
        "latitude": 51.0507,
        "organisation": "Jef's house",
        "meta": {
          "data processing": "A cat will sense the presence of people or other cats and will use this information to purr dramatically loud.",
          "what is this?": "CAAS - Cat as a sensor"
        }
      },
      {
        "_links": {
          "self": {
            "href": "https://acc.api.data.amsterdam.nl/iothings/devices/2/"
          }
        },
        "id": 2,
        "reference": "WSS100",
        "application": "Baken",
        "types": [],
        "categories": ["Baken"],
        "longitude": 3.70679999999993,
        "latitude": 51.0516,
        "organisation": "Digipolis Gent"
      },
      {
        "_links": {
          "self": {
            "href": "https://acc.api.data.amsterdam.nl/iothings/devices/3/"
          }
        },
        "id": 3,
        "reference": "WSS105",
        "application": "Camera",
        "types": [
          {
            "name": "Politie",
            "application": "Politie",
            "description": ""
          }
        ],
        "categories": ["Camera"],
        "longitude": 3.7050319,
        "latitude": 51.0495489,
        "organisation": "Politie Gent",
        "meta": {
          "organisation": "Politie Gent",
          "data processing": "This is a live camera, no data is saved",
          "what is this?": "It's a camera!"
        }
      },
      {
        "_links": {
          "self": {
            "href": "https://acc.api.data.amsterdam.nl/iothings/devices/4/"
          }
        },
        "id": 4,
        "reference": "AMS13",
        "application": "Sensor",
        "types": [
          {
            "name": "Luchtkwaliteit",
            "application": "Luchtkwaliteit",
            "description": ""
          }
        ],
        "categories": ["Sensor"],
        "longitude": 4.9041,
        "latitude": 52.3576,
        "organisation": "GGD Amsterdam"
      },
      {
        "_links": {
          "self": {
            "href": "https://acc.api.data.amsterdam.nl/iothings/devices/5/"
          }
        },
        "id": 5,
        "reference": "AMS45",
        "application": "Sensor",
        "types": [
          {
            "name": "Luchtkwaliteit",
            "application": "Luchtkwaliteit",
            "description": ""
          }
        ],
        "categories": ["Sensor"],
        "longitude": 4.906,
        "latitude": 52.3547,
        "organisation": "GGD Amsterdam"
      },
      {
        "_links": {
          "self": {
            "href": "https://acc.api.data.amsterdam.nl/iothings/devices/6/"
          }
        },
        "id": 6,
        "reference": "1HDG17",
        "application": "Sensor",
        "types": [
          {
            "name": "Luchtkwaliteit",
            "application": "Luchtkwaliteit",
            "description": ""
          }
        ],
        "categories": ["Sensor"],
        "longitude": 4.8742,
        "latitude": 52.376,
        "organisation": "GGD Amsterdam"
      },
      {
        "_links": {
          "self": {
            "href": "https://acc.api.data.amsterdam.nl/iothings/devices/7/"
          }
        },
        "id": 7,
        "reference": "ADM58",
        "application": "Sensor",
        "types": [
          {
            "name": "Luchtkwaliteit",
            "application": "Luchtkwaliteit",
            "description": ""
          }
        ],
        "categories": ["Sensor"],
        "longitude": 4.9248,
        "latitude": 52.3687,
        "organisation": "GGD Amsterdam"
      },
      {
        "_links": {
          "self": {
            "href": "https://acc.api.data.amsterdam.nl/iothings/devices/8/"
          }
        },
        "id": 8,
        "reference": "AL29",
        "application": "Sensor",
        "types": [
          {
            "name": "Luchtkwaliteit",
            "application": "Luchtkwaliteit",
            "description": ""
          }
        ],
        "categories": ["Sensor"],
        "longitude": 4.8319,
        "latitude": 52.376,
        "organisation": "GGD Amsterdam"
      },
      {
        "_links": {
          "self": {
            "href": "https://acc.api.data.amsterdam.nl/iothings/devices/9/"
          }
        },
        "id": 9,
        "reference": "ALP17",
        "application": "Sensor",
        "types": [
          {
            "name": "Luchtkwaliteit",
            "application": "Luchtkwaliteit",
            "description": ""
          }
        ],
        "categories": ["Sensor"],
        "longitude": 4.8726,
        "latitude": 52.3703,
        "organisation": "GGD Amsterdam"
      },
      {
        "_links": {
          "self": {
            "href": "https://acc.api.data.amsterdam.nl/iothings/devices/10/"
          }
        },
        "id": 10,
        "reference": "AV9",
        "application": "Sensor",
        "types": [
          {
            "name": "Luchtkwaliteit",
            "application": "Luchtkwaliteit",
            "description": ""
          }
        ],
        "categories": ["Sensor"],
        "longitude": 4.8979,
        "latitude": 52.3624,
        "organisation": "GGD Amsterdam"
      },
      {
        "_links": {
          "self": {
            "href": "https://acc.api.data.amsterdam.nl/iothings/devices/11/"
          }
        },
        "id": 11,
        "reference": "BAN8",
        "application": "Sensor",
        "types": [
          {
            "name": "Luchtkwaliteit",
            "application": "Luchtkwaliteit",
            "description": ""
          }
        ],
        "categories": ["Sensor"],
        "longitude": 4.8735,
        "latitude": 52.3557,
        "organisation": "GGD Amsterdam"
      },
      {
        "_links": {
          "self": {
            "href": "https://acc.api.data.amsterdam.nl/iothings/devices/12/"
          }
        },
        "id": 12,
        "reference": "BIN37",
        "application": "Sensor",
        "types": [
          {
            "name": "Luchtkwaliteit",
            "application": "Luchtkwaliteit",
            "description": ""
          }
        ],
        "categories": ["Sensor"],
        "longitude": 4.9054,
        "latitude": 52.373,
        "organisation": "GGD Amsterdam"
      },
      {
        "_links": {
          "self": {
            "href": "https://acc.api.data.amsterdam.nl/iothings/devices/13/"
          }
        },
        "id": 13,
        "reference": "BLM93",
        "application": "Sensor",
        "types": [
          {
            "name": "Luchtkwaliteit",
            "application": "Luchtkwaliteit",
            "description": ""
          }
        ],
        "categories": ["Sensor"],
        "longitude": 4.8795,
        "latitude": 52.3743,
        "organisation": "GGD Amsterdam"
      },
      {
        "_links": {
          "self": {
            "href": "https://acc.api.data.amsterdam.nl/iothings/devices/14/"
          }
        },
        "id": 14,
        "reference": "BOR143",
        "application": "Sensor",
        "types": [
          {
            "name": "Luchtkwaliteit",
            "application": "Luchtkwaliteit",
            "description": ""
          }
        ],
        "categories": ["Sensor"],
        "longitude": 4.9418,
        "latitude": 52.3707,
        "organisation": "GGD Amsterdam"
      },
      {
        "_links": {
          "self": {
            "href": "https://acc.api.data.amsterdam.nl/iothings/devices/15/"
          }
        },
        "id": 15,
        "reference": "BRAN4",
        "application": "Sensor",
        "types": [
          {
            "name": "Luchtkwaliteit",
            "application": "Luchtkwaliteit",
            "description": ""
          }
        ],
        "categories": ["Sensor"],
        "longitude": 4.9252,
        "latitude": 52.3793,
        "organisation": "GGD Amsterdam"
      },
      {
        "_links": {
          "self": {
            "href": "https://acc.api.data.amsterdam.nl/iothings/devices/16/"
          }
        },
        "id": 16,
        "reference": "BS19",
        "application": "Sensor",
        "types": [
          {
            "name": "Luchtkwaliteit",
            "application": "Luchtkwaliteit",
            "description": ""
          }
        ],
        "categories": ["Sensor"],
        "longitude": 4.8968,
        "latitude": 52.375,
        "organisation": "GGD Amsterdam"
      },
      {
        "_links": {
          "self": {
            "href": "https://acc.api.data.amsterdam.nl/iothings/devices/17/"
          }
        },
        "id": 17,
        "reference": "COBA10",
        "application": "Sensor",
        "types": [
          {
            "name": "Luchtkwaliteit",
            "application": "Luchtkwaliteit",
            "description": ""
          }
        ],
        "categories": ["Sensor"],
        "longitude": 4.8254,
        "latitude": 52.344,
        "organisation": "GGD Amsterdam"
      },
      {
        "_links": {
          "self": {
            "href": "https://acc.api.data.amsterdam.nl/iothings/devices/18/"
          }
        },
        "id": 18,
        "reference": "COP41",
        "application": "Sensor",
        "types": [
          {
            "name": "Luchtkwaliteit",
            "application": "Luchtkwaliteit",
            "description": ""
          }
        ],
        "categories": ["Sensor"],
        "longitude": 4.8603,
        "latitude": 52.3762,
        "organisation": "GGD Amsterdam"
      },
      {
        "_links": {
          "self": {
            "href": "https://acc.api.data.amsterdam.nl/iothings/devices/19/"
          }
        },
        "id": 19,
        "reference": "CVT9",
        "application": "Sensor",
        "types": [
          {
            "name": "Luchtkwaliteit",
            "application": "Luchtkwaliteit",
            "description": ""
          }
        ],
        "categories": ["Sensor"],
        "longitude": 4.9639,
        "latitude": 52.3205,
        "organisation": "GGD Amsterdam"
      },
      {
        "_links": {
          "self": {
            "href": "https://acc.api.data.amsterdam.nl/iothings/devices/20/"
          }
        },
        "id": 20,
        "reference": "DIN94",
        "application": "Sensor",
        "types": [
          {
            "name": "Luchtkwaliteit",
            "application": "Luchtkwaliteit",
            "description": ""
          }
        ],
        "categories": ["Sensor"],
        "longitude": 4.8935,
        "latitude": 52.3436,
        "organisation": "GGD Amsterdam"
      },
      {
        "_links": {
          "self": {
            "href": "https://acc.api.data.amsterdam.nl/iothings/devices/21/"
          }
        },
        "id": 21,
        "reference": "DORA1",
        "application": "Sensor",
        "types": [
          {
            "name": "Luchtkwaliteit",
            "application": "Luchtkwaliteit",
            "description": ""
          }
        ],
        "categories": ["Sensor"],
        "longitude": 4.9054,
        "latitude": 52.3538,
        "organisation": "GGD Amsterdam"
      },
      {
        "_links": {
          "self": {
            "href": "https://acc.api.data.amsterdam.nl/iothings/devices/22/"
          }
        },
        "id": 22,
        "reference": "GIBR67",
        "application": "Sensor",
        "types": [
          {
            "name": "Luchtkwaliteit",
            "application": "Luchtkwaliteit",
            "description": ""
          }
        ],
        "categories": ["Sensor"],
        "longitude": 4.8496,
        "latitude": 52.3841,
        "organisation": "GGD Amsterdam"
      },
      {
        "_links": {
          "self": {
            "href": "https://acc.api.data.amsterdam.nl/iothings/devices/23/"
          }
        },
        "id": 23,
        "reference": "HDP104",
        "application": "Sensor",
        "types": [
          {
            "name": "Luchtkwaliteit",
            "application": "Luchtkwaliteit",
            "description": ""
          }
        ],
        "categories": ["Sensor"],
        "longitude": 4.8768,
        "latitude": 52.3846,
        "organisation": "GGD Amsterdam"
      },
      {
        "_links": {
          "self": {
            "href": "https://acc.api.data.amsterdam.nl/iothings/devices/24/"
          }
        },
        "id": 24,
        "reference": "HEM187",
        "application": "Sensor",
        "types": [
          {
            "name": "Luchtkwaliteit",
            "application": "Luchtkwaliteit",
            "description": ""
          }
        ],
        "categories": ["Sensor"],
        "longitude": 4.8745,
        "latitude": 52.3911,
        "organisation": "GGD Amsterdam"
      },
      {
        "_links": {
          "self": {
            "href": "https://acc.api.data.amsterdam.nl/iothings/devices/25/"
          }
        },
        "id": 25,
        "reference": "HEMO18",
        "application": "Sensor",
        "types": [
          {
            "name": "Luchtkwaliteit",
            "application": "Luchtkwaliteit",
            "description": ""
          }
        ],
        "categories": ["Sensor"],
        "longitude": 4.9011,
        "latitude": 52.3575,
        "organisation": "GGD Amsterdam"
      },
      {
        "_links": {
          "self": {
            "href": "https://acc.api.data.amsterdam.nl/iothings/devices/26/"
          }
        },
        "id": 26,
        "reference": "HP11c",
        "application": "Sensor",
        "types": [
          {
            "name": "Luchtkwaliteit",
            "application": "Luchtkwaliteit",
            "description": ""
          }
        ],
        "categories": ["Sensor"],
        "longitude": 4.9113,
        "latitude": 52.3678,
        "organisation": "GGD Amsterdam"
      },
      {
        "_links": {
          "self": {
            "href": "https://acc.api.data.amsterdam.nl/iothings/devices/27/"
          }
        },
        "id": 27,
        "reference": "HS6",
        "application": "Sensor",
        "types": [
          {
            "name": "Luchtkwaliteit",
            "application": "Luchtkwaliteit",
            "description": ""
          }
        ],
        "categories": ["Sensor"],
        "longitude": 4.8557,
        "latitude": 52.3493,
        "organisation": "GGD Amsterdam"
      },
      {
        "_links": {
          "self": {
            "href": "https://acc.api.data.amsterdam.nl/iothings/devices/28/"
          }
        },
        "id": 28,
        "reference": "IJB19",
        "application": "Sensor",
        "types": [
          {
            "name": "Luchtkwaliteit",
            "application": "Luchtkwaliteit",
            "description": ""
          }
        ],
        "categories": ["Sensor"],
        "longitude": 4.853,
        "latitude": 52.3411,
        "organisation": "GGD Amsterdam"
      },
      {
        "_links": {
          "self": {
            "href": "https://acc.api.data.amsterdam.nl/iothings/devices/29/"
          }
        },
        "id": 29,
        "reference": "IJS27",
        "application": "Sensor",
        "types": [
          {
            "name": "Luchtkwaliteit",
            "application": "Luchtkwaliteit",
            "description": ""
          }
        ],
        "categories": ["Sensor"],
        "longitude": 4.9033,
        "latitude": 52.3473,
        "organisation": "GGD Amsterdam"
      },
      {
        "_links": {
          "self": {
            "href": "https://acc.api.data.amsterdam.nl/iothings/devices/30/"
          }
        },
        "id": 30,
        "reference": "ING10",
        "application": "Sensor",
        "types": [
          {
            "name": "Luchtkwaliteit",
            "application": "Luchtkwaliteit",
            "description": ""
          }
        ],
        "categories": ["Sensor"],
        "longitude": 4.9258,
        "latitude": 52.3554,
        "organisation": "GGD Amsterdam"
      },
      {
        "_links": {
          "self": {
            "href": "https://acc.api.data.amsterdam.nl/iothings/devices/31/"
          }
        },
        "id": 31,
        "reference": "KORT100",
        "application": "Sensor",
        "types": [
          {
            "name": "Luchtkwaliteit",
            "application": "Luchtkwaliteit",
            "description": ""
          }
        ],
        "categories": ["Sensor"],
        "longitude": 4.9687,
        "latitude": 52.3148,
        "organisation": "GGD Amsterdam"
      },
      {
        "_links": {
          "self": {
            "href": "https://acc.api.data.amsterdam.nl/iothings/devices/32/"
          }
        },
        "id": 32,
        "reference": "LEP4",
        "application": "Sensor",
        "types": [
          {
            "name": "Luchtkwaliteit",
            "application": "Luchtkwaliteit",
            "description": ""
          }
        ],
        "categories": ["Sensor"],
        "longitude": 4.9055,
        "latitude": 52.3626,
        "organisation": "GGD Amsterdam"
      },
      {
        "_links": {
          "self": {
            "href": "https://acc.api.data.amsterdam.nl/iothings/devices/33/"
          }
        },
        "id": 33,
        "reference": "LUYK38",
        "application": "Sensor",
        "types": [
          {
            "name": "Luchtkwaliteit",
            "application": "Luchtkwaliteit",
            "description": ""
          }
        ],
        "categories": ["Sensor"],
        "longitude": 4.8823,
        "latitude": 52.3601,
        "organisation": "GGD Amsterdam"
      },
      {
        "_links": {
          "self": {
            "href": "https://acc.api.data.amsterdam.nl/iothings/devices/34/"
          }
        },
        "id": 34,
        "reference": "NGS97",
        "application": "Sensor",
        "types": [
          {
            "name": "Luchtkwaliteit",
            "application": "Luchtkwaliteit",
            "description": ""
          }
        ],
        "categories": ["Sensor"],
        "longitude": 4.9135,
        "latitude": 52.3849,
        "organisation": "GGD Amsterdam"
      },
      {
        "_links": {
          "self": {
            "href": "https://acc.api.data.amsterdam.nl/iothings/devices/35/"
          }
        },
        "id": 35,
        "reference": "NOVA116",
        "application": "Sensor",
        "types": [
          {
            "name": "Luchtkwaliteit",
            "application": "Luchtkwaliteit",
            "description": ""
          }
        ],
        "categories": ["Sensor"],
        "longitude": 4.8828,
        "latitude": 52.3904,
        "organisation": "GGD Amsterdam"
      },
      {
        "_links": {
          "self": {
            "href": "https://acc.api.data.amsterdam.nl/iothings/devices/36/"
          }
        },
        "id": 36,
        "reference": "PVDD67",
        "application": "Sensor",
        "types": [
          {
            "name": "Luchtkwaliteit",
            "application": "Luchtkwaliteit",
            "description": ""
          }
        ],
        "categories": ["Sensor"],
        "longitude": 4.8566,
        "latitude": 52.3738,
        "organisation": "GGD Amsterdam"
      }
    ]
  }
}
